\relax 
\providecommand\hyper@newdestlabel[2]{}
\@writefile{toc}{\contentsline {chapter}{\numberline {8}Leçon 15 -- Le système d'exploitation}{205}{chapter.8}\protected@file@percent }
\@writefile{lof}{\addvspace {10\p@ }}
\@writefile{lot}{\addvspace {10\p@ }}
\@writefile{lol}{\addvspace {10\p@ }}
\newlabel{cha:OS}{{8}{205}{Leçon 15 -- Le système d'exploitation}{chapter.8}{}}
\@writefile{toc}{\contentsline {section}{\numberline {8.1}Nécessité d'un système d'exploitation}{205}{section.8.1}\protected@file@percent }
\@writefile{lof}{\contentsline {figure}{\numberline {\relax 8.1}{\ignorespaces Exemple de programme Python manipulant in fichier}}{206}{figure.caption.191}\protected@file@percent }
\newlabel{fig:prog-python-file}{{\relax 8.1}{206}{Exemple de programme Python manipulant in fichier}{figure.caption.191}{}}
\@writefile{toc}{\contentsline {subsection}{\numberline {8.1.1}Quelques repères historiques}{206}{subsection.8.1.1}\protected@file@percent }
\@writefile{toc}{\contentsline {section}{\numberline {8.2}Principe général de fonctionnement}{206}{section.8.2}\protected@file@percent }
\@writefile{toc}{\contentsline {subsection}{\numberline {8.2.1}Tâches dévolues au système d'exploitation}{206}{subsection.8.2.1}\protected@file@percent }
\@writefile{toc}{\contentsline {subsection}{\numberline {8.2.2}Mécanismes de protection et de l'appel système}{207}{subsection.8.2.2}\protected@file@percent }
\@writefile{toc}{\contentsline {subsection}{\numberline {8.2.3}Systèmes d'exploitation orientés utilisateur}{207}{subsection.8.2.3}\protected@file@percent }
\@writefile{toc}{\contentsline {subsection}{\numberline {8.2.4}Interpréteur de commande}{207}{subsection.8.2.4}\protected@file@percent }
\@writefile{toc}{\contentsline {subsection}{\numberline {8.2.5}L'odonnanceur}{207}{subsection.8.2.5}\protected@file@percent }
\@writefile{toc}{\contentsline {subsection}{\numberline {8.2.6}Cas des systèmes d'exploitation temps-réel}{207}{subsection.8.2.6}\protected@file@percent }
\@writefile{toc}{\contentsline {paragraph}{\nonumberline Pour résumer}{208}{section*.192}\protected@file@percent }
\@writefile{toc}{\contentsline {section}{\numberline {8.3}Types d'OS}{208}{section.8.3}\protected@file@percent }
\@writefile{toc}{\contentsline {section}{\numberline {8.4}OS et interruptions}{209}{section.8.4}\protected@file@percent }
\@writefile{toc}{\contentsline {section}{\numberline {8.5}Appels système}{209}{section.8.5}\protected@file@percent }
\@setckpt{chapters/08-niveau4-OS}{
\setcounter{page}{211}
\setcounter{equation}{0}
\setcounter{enumi}{3}
\setcounter{enumii}{2}
\setcounter{enumiii}{0}
\setcounter{enumiv}{0}
\setcounter{footnote}{2}
\setcounter{mpfootnote}{0}
\setcounter{part}{5}
\setcounter{chapter}{8}
\setcounter{section}{5}
\setcounter{subsection}{0}
\setcounter{subsubsection}{0}
\setcounter{paragraph}{0}
\setcounter{subparagraph}{0}
\setcounter{figure}{1}
\setcounter{table}{0}
\setcounter{FBcaption@count}{0}
\setcounter{parentequation}{0}
\setcounter{lstnumber}{9}
\setcounter{exo}{0}
\setcounter{exercice}{0}
\setcounter{questnum}{0}
\setcounter{Item}{181}
\setcounter{Hfootnote}{108}
\setcounter{Hy@AnnotLevel}{0}
\setcounter{bookmark@seq@number}{0}
\setcounter{r@tfl@t}{4}
\setcounter{tabx@nest}{0}
\setcounter{listtotal}{0}
\setcounter{listcount}{0}
\setcounter{liststart}{0}
\setcounter{liststop}{0}
\setcounter{citecount}{0}
\setcounter{citetotal}{0}
\setcounter{multicitecount}{0}
\setcounter{multicitetotal}{0}
\setcounter{instcount}{61}
\setcounter{maxnames}{3}
\setcounter{minnames}{1}
\setcounter{maxitems}{3}
\setcounter{minitems}{1}
\setcounter{citecounter}{0}
\setcounter{maxcitecounter}{0}
\setcounter{savedcitecounter}{0}
\setcounter{uniquelist}{0}
\setcounter{uniquename}{0}
\setcounter{refsection}{0}
\setcounter{refsegment}{0}
\setcounter{maxextratitle}{0}
\setcounter{maxextratitleyear}{0}
\setcounter{maxextraname}{2}
\setcounter{maxextradate}{0}
\setcounter{maxextraalpha}{0}
\setcounter{abbrvpenalty}{50}
\setcounter{highnamepenalty}{50}
\setcounter{lownamepenalty}{25}
\setcounter{maxparens}{3}
\setcounter{parenlevel}{0}
\setcounter{mincomprange}{10}
\setcounter{maxcomprange}{100000}
\setcounter{mincompwidth}{1}
\setcounter{afterword}{0}
\setcounter{savedafterword}{0}
\setcounter{annotator}{0}
\setcounter{savedannotator}{0}
\setcounter{author}{0}
\setcounter{savedauthor}{0}
\setcounter{bookauthor}{0}
\setcounter{savedbookauthor}{0}
\setcounter{commentator}{0}
\setcounter{savedcommentator}{0}
\setcounter{editor}{0}
\setcounter{savededitor}{0}
\setcounter{editora}{0}
\setcounter{savededitora}{0}
\setcounter{editorb}{0}
\setcounter{savededitorb}{0}
\setcounter{editorc}{0}
\setcounter{savededitorc}{0}
\setcounter{foreword}{0}
\setcounter{savedforeword}{0}
\setcounter{holder}{0}
\setcounter{savedholder}{0}
\setcounter{introduction}{0}
\setcounter{savedintroduction}{0}
\setcounter{namea}{0}
\setcounter{savednamea}{0}
\setcounter{nameb}{0}
\setcounter{savednameb}{0}
\setcounter{namec}{0}
\setcounter{savednamec}{0}
\setcounter{translator}{0}
\setcounter{savedtranslator}{0}
\setcounter{shortauthor}{0}
\setcounter{savedshortauthor}{0}
\setcounter{shorteditor}{0}
\setcounter{savedshorteditor}{0}
\setcounter{labelname}{0}
\setcounter{savedlabelname}{0}
\setcounter{institution}{0}
\setcounter{savedinstitution}{0}
\setcounter{lista}{0}
\setcounter{savedlista}{0}
\setcounter{listb}{0}
\setcounter{savedlistb}{0}
\setcounter{listc}{0}
\setcounter{savedlistc}{0}
\setcounter{listd}{0}
\setcounter{savedlistd}{0}
\setcounter{liste}{0}
\setcounter{savedliste}{0}
\setcounter{listf}{0}
\setcounter{savedlistf}{0}
\setcounter{location}{0}
\setcounter{savedlocation}{0}
\setcounter{organization}{0}
\setcounter{savedorganization}{0}
\setcounter{origlocation}{0}
\setcounter{savedoriglocation}{0}
\setcounter{origpublisher}{0}
\setcounter{savedorigpublisher}{0}
\setcounter{publisher}{0}
\setcounter{savedpublisher}{0}
\setcounter{language}{0}
\setcounter{savedlanguage}{0}
\setcounter{origlanguage}{0}
\setcounter{savedoriglanguage}{0}
\setcounter{pageref}{0}
\setcounter{savedpageref}{0}
\setcounter{textcitecount}{0}
\setcounter{textcitetotal}{0}
\setcounter{textcitemaxnames}{0}
\setcounter{biburlnumpenalty}{0}
\setcounter{biburlucpenalty}{0}
\setcounter{biburllcpenalty}{0}
\setcounter{smartand}{1}
\setcounter{bbx:relatedcount}{0}
\setcounter{bbx:relatedtotal}{0}
\setcounter{ifsymcnt}{0}
\setcounter{caption@flags}{0}
\setcounter{ContinuedFloat}{0}
\setcounter{@todonotes@numberoftodonotes}{0}
\setcounter{tikztiming@nrows}{3}
\setcounter{tikztimingrows}{0}
\setcounter{tikztimingtrans}{-1}
\setcounter{tikztimingtranspos}{0}
\setcounter{theorem}{1}
\setcounter{lstlisting}{0}
\setcounter{section@level}{1}
}
