fortran;1954
lisp;1959
cobol;1960
basic;1964
logo;1968
pascal;1971
c;1972
smalltalk;1972
prolog;1972
sql;1974
ada;1983
c++;1983
caml;1985
perl;1987
haskell;1990
python;1991
ruby;1993
lua;1993
java;1995
php;1995
c#;2000
scala;2003
go;2009
rust;2010
kotlin;2011
julia;2012
swift;2014
