#FIG 3.1
Portrait
Center
Inches
1200 2
6 3750 2625 6900 3975
4 0 -1 0 0 3 12 0.0000000 4 330 3135 3751 3526 Reservoir Dogs 1992\001
4 0 -1 0 0 3 12 0.0000000 4 330 2475 3751 2926 Metropolis 1926\001
4 0 -1 0 0 3 12 0.0000000 4 330 2175 3751 3226 Psychose 1960\001
4 0 -1 0 0 3 12 0.0000000 4 330 1980 3751 3826 Shining 1980\001
-6
6 5550 2625 7200 4125
6 5626 2776 7126 3901
4 0 -1 0 0 3 12 0.0000000 4 135 900 5628 2927 Smoke 1995\001
4 0 -1 0 0 3 12 0.0000000 4 135 1260 5628 3227 Twin Peaks 1990\001
4 0 -1 0 0 3 12 0.0000000 4 180 1440 5628 3527 Underground 1995\001
4 0 -1 0 0 3 12 0.0000000 4 180 945 5628 3827 Vertigo 1958\001
-6
2 2 0 1 -1 7 0 0 -1 0.000 0 0 0 0 0 5
	 5551 2626 7126 2626 7126 4051 5551 4051 5551 2626
-6
6 226 2626 5401 4126
6 302 2627 2927 3977
4 0 -1 0 0 3 12 0.0000000 4 285 1830 303 3228 Brazil  1984\001
4 0 -1 0 0 3 12 0.0000000 4 255 2610 303 3528 Casablanca 1942\001
4 0 -1 0 0 3 12 0.0000000 4 255 2475 303 2928 Annie Hall 1977\001
4 0 -1 0 0 3 12 0.0000000 4 330 2505 303 3828 Easy Rider 1969\001
-6
6 2027 2627 5027 3902
4 0 -1 0 0 3 12 0.0000000 4 285 2955 2028 3228 Jurassic Park 1992\001
4 0 -1 0 0 3 12 0.0000000 4 330 2640 2028 3528 Impitoyable 1992\001
4 0 -1 0 0 3 12 0.0000000 4 255 2550 2029 3829 Manhattan 1979\001
4 0 -1 0 0 3 12 0.0000000 4 330 2340 2028 2928 Greystoke 1984\001
-6
2 2 0 1 -1 7 0 0 -1 0.000 0 0 0 0 0 5
	 1952 2627 3527 2627 3527 4052 1952 4052 1952 2627
2 2 0 1 -1 7 0 0 -1 0.000 0 0 0 0 0 5
	 3677 2627 5327 2627 5327 4052 3677 4052 3677 2627
2 2 0 1 -1 7 0 0 -1 0.000 0 0 0 0 0 5
	 227 2627 1802 2627 1802 4052 227 4052 227 2627
-6
2 1 0 1 -1 7 0 0 -1 0.000 0 0 -1 1 0 4
	1 1 1.00 60.00 120.00
	 1651 1726 1651 2101 376 2101 376 2626
2 1 0 1 -1 7 0 0 -1 0.000 0 0 -1 1 0 4
	1 1 1.00 60.00 120.00
	 2926 1726 2926 2326 2326 2326 2326 2626
2 1 0 1 -1 7 0 0 -1 0.000 0 0 -1 1 0 2
	1 1 1.00 60.00 120.00
	 4051 1726 4051 2626
2 1 0 1 -1 7 0 0 -1 0.000 0 0 -1 1 0 4
	1 1 1.00 60.00 120.00
	 5026 1726 5026 2251 5851 2251 5851 2626
2 1 0 1 -1 7 0 0 -1 0.000 0 0 -1 1 0 6
	1 1 1.00 60.00 120.00
	 976 4051 976 4276 1876 4276 1876 2476 2026 2476 2026 2626
2 1 0 1 -1 7 0 0 -1 0.000 0 0 -1 1 0 6
	1 1 1.00 60.00 120.00
	 2701 4051 2701 4276 3601 4276 3601 2476 3751 2476 3751 2626
2 1 0 1 -1 7 0 0 -1 0.000 0 0 -1 1 0 6
	1 1 1.00 60.00 120.00
	 4501 4051 4501 4276 5476 4276 5476 2476 5701 2476 5701 2626
2 2 0 1 -1 7 0 0 -1 0.000 0 0 0 0 0 5
	 1200 1350 3450 1350 3450 1725 1200 1725 1200 1350
2 2 0 1 -1 7 0 0 -1 0.000 0 0 0 0 0 5
	 3750 1350 5625 1350 5625 1725 3750 1725 3750 1350
2 2 0 1 -1 7 0 0 -1 0.000 0 0 0 0 0 5
	 2325 450 4500 450 4500 825 2325 825 2325 450
2 1 0 1 -1 7 0 0 -1 0.000 0 0 -1 1 0 4
	1 1 1.00 60.00 120.00
	 2775 825 2775 1050 1425 1050 1425 1350
2 1 0 1 -1 7 0 0 -1 0.000 0 0 -1 1 0 2
	1 1 1.00 60.00 120.00
	 3975 825 3975 1350
2 1 0 1 -1 7 0 0 -1 0.000 0 0 -1 1 0 2
	1 1 1.00 60.00 120.00
	 3450 1575 3750 1575
4 0 -1 0 0 3 12 0.0000000 4 135 495 4951 1576 Smoke\001
4 0 -1 0 0 3 12 0.0000000 4 180 810 2400 1575 Greystocke\001
4 0 -1 0 0 3 12 0.0000000 4 135 810 1350 1575 Annie Hall\001
4 0 -1 0 0 3 12 0.0000000 4 180 795 3975 1575 Metropolis\001
4 0 -1 0 0 3 12 0.0000000 4 135 810 2400 675 Annie Hall\001
4 0 -1 0 0 3 12 0.0000000 4 180 795 3525 675 Metropolis\001
4 0 -1 0 0 -1 12 0.0000000 4 135 1050 75 1575 Index niveau 1\001
4 0 -1 0 0 -1 12 0.0000000 4 135 1050 75 675 Index niveau 2\001
