#FIG 3.1
Landscape
Center
Inches
1200 2
2 2 0 1 -1 7 0 0 -1 0.000 0 0 0 0 0 5
	 2325 225 3675 225 3675 450 2325 450 2325 225
2 2 0 1 -1 7 0 0 -1 0.000 0 0 0 0 0 5
	 825 675 2175 675 2175 900 825 900 825 675
2 2 0 1 -1 7 0 0 -1 0.000 0 0 0 0 0 5
	 2400 675 3750 675 3750 900 2400 900 2400 675
2 2 0 1 -1 7 0 0 -1 0.000 0 0 0 0 0 5
	 5475 1425 6825 1425 6825 1650 5475 1650 5475 1425
2 2 0 1 -1 7 0 0 -1 0.000 0 0 0 0 0 5
	 75 1275 900 1275 900 1500 75 1500 75 1275
2 2 0 1 -1 7 0 0 -1 0.000 0 0 0 0 0 5
	 1275 1275 2175 1275 2175 1500 1275 1500 1275 1275
2 2 0 1 -1 7 0 0 -1 0.000 0 0 0 0 0 5
	 1350 1875 2925 1875 2925 2100 1350 2100 1350 1875
2 2 0 1 -1 7 0 0 -1 0.000 0 0 0 0 0 5
	 3075 1875 4575 1875 4575 2100 3075 2100 3075 1875
2 2 0 1 -1 7 0 0 -1 0.000 0 0 0 0 0 5
	 4800 1425 5325 1425 5325 1650 4800 1650 4800 1425
2 2 0 1 -1 7 0 0 -1 0.000 0 0 0 0 0 5
	 3600 1425 4650 1425 4650 1650 3600 1650 3600 1425
2 1 0 1 -1 7 0 0 -1 0.000 0 0 -1 0 0 2
	 2325 375 1500 675
2 1 0 1 -1 7 0 0 -1 0.000 0 0 -1 0 0 2
	 3000 450 3000 675
2 1 0 1 -1 7 0 0 -1 0.000 0 0 -1 0 0 2
	 3675 450 4650 675
2 1 0 1 -1 7 0 0 -1 0.000 0 0 -1 0 0 2
	 1050 900 450 1275
2 1 0 1 -1 7 0 0 -1 0.000 0 0 -1 0 0 2
	 1575 900 2025 1275
2 1 0 1 -1 7 0 0 -1 0.000 0 0 -1 0 0 2
	 2700 900 2100 1875
2 1 0 1 -1 7 0 0 -1 0.000 0 0 -1 0 0 2
	 3075 900 3600 1875
2 1 0 1 -1 7 0 0 -1 0.000 0 0 -1 0 0 2
	 4125 900 4050 1425
2 1 0 1 -1 7 0 0 -1 0.000 0 0 -1 0 0 2
	 4650 900 5025 1425
2 2 0 1 -1 7 0 0 -1 0.000 0 0 0 0 0 5
	 4050 675 5550 675 5550 900 4050 900 4050 675
2 1 0 1 -1 7 0 0 -1 0.000 0 0 -1 0 0 2
	 5475 900 6075 1425
4 0 -1 0 0 3 9 0.0000000 4 90 645 150 1425 Annie Hall\001
4 0 -1 0 0 3 9 0.0000000 4 120 900 3675 1575 Reservoir Dogs\001
4 0 -1 0 0 3 9 0.0000000 4 120 645 2400 375 Easy Rider\001
4 0 -1 0 0 3 9 0.0000000 4 105 855 2550 825 Jurassic Park \001
4 0 -1 0 0 3 9 0.0000000 4 90 735 1350 1425 Casablanca \001
4 0 -1 0 0 3 9 0.0000000 4 90 390 4875 1575 Smoke\001
4 0 -1 0 0 3 9 0.0000000 4 120 690 3900 2025 Metropolis \001
4 0 -1 0 0 3 9 0.0000000 4 90 690 3150 2025 Manhattan \001
4 0 -1 0 0 3 9 0.0000000 4 120 750 2175 2025 Impitoyable \001
4 0 -1 0 0 3 9 0.0000000 4 120 585 1425 2025 Greystoke\001
4 0 -1 0 0 3 9 0.0000000 4 120 795 5550 1575 Underground\001
4 0 -1 0 0 3 9 0.0000000 4 120 450 6375 1575 Vertigo\001
4 0 -1 0 0 3 9 0.0000000 4 120 525 3075 375 Psychose\001
4 0 -1 0 0 3 9 0.0000000 4 90 405 1200 825 Brazil \001
4 0 -1 0 0 3 9 0.0000000 4 90 660 4800 825 Twin Peaks\001
4 0 -1 0 0 3 9 0.0000000 4 120 465 4200 825 Shining\001
