%!PS-Adobe-2.0 EPSF-2.0
%%Title: idxnondense.eps
%%Creator: fig2dev Version 3.2 Patchlevel 1
%%CreationDate: Tue Jun 19 09:35:58 2001
%%For: rigaux@cartier ()
%%Orientation: Portrait
%%BoundingBox: 0 0 348 195
%%Pages: 0
%%BeginSetup
%%EndSetup
%%Magnification: 1.0000
%%EndComments
/$F2psDict 200 dict def
$F2psDict begin
$F2psDict /mtrx matrix put
/col-1 {0 setgray} bind def
/col0 {0.000 0.000 0.000 srgb} bind def
/col1 {0.000 0.000 1.000 srgb} bind def
/col2 {0.000 1.000 0.000 srgb} bind def
/col3 {0.000 1.000 1.000 srgb} bind def
/col4 {1.000 0.000 0.000 srgb} bind def
/col5 {1.000 0.000 1.000 srgb} bind def
/col6 {1.000 1.000 0.000 srgb} bind def
/col7 {1.000 1.000 1.000 srgb} bind def
/col8 {0.000 0.000 0.560 srgb} bind def
/col9 {0.000 0.000 0.690 srgb} bind def
/col10 {0.000 0.000 0.820 srgb} bind def
/col11 {0.530 0.810 1.000 srgb} bind def
/col12 {0.000 0.560 0.000 srgb} bind def
/col13 {0.000 0.690 0.000 srgb} bind def
/col14 {0.000 0.820 0.000 srgb} bind def
/col15 {0.000 0.560 0.560 srgb} bind def
/col16 {0.000 0.690 0.690 srgb} bind def
/col17 {0.000 0.820 0.820 srgb} bind def
/col18 {0.560 0.000 0.000 srgb} bind def
/col19 {0.690 0.000 0.000 srgb} bind def
/col20 {0.820 0.000 0.000 srgb} bind def
/col21 {0.560 0.000 0.560 srgb} bind def
/col22 {0.690 0.000 0.690 srgb} bind def
/col23 {0.820 0.000 0.820 srgb} bind def
/col24 {0.500 0.190 0.000 srgb} bind def
/col25 {0.630 0.250 0.000 srgb} bind def
/col26 {0.750 0.380 0.000 srgb} bind def
/col27 {1.000 0.500 0.500 srgb} bind def
/col28 {1.000 0.630 0.630 srgb} bind def
/col29 {1.000 0.750 0.750 srgb} bind def
/col30 {1.000 0.880 0.880 srgb} bind def
/col31 {1.000 0.840 0.000 srgb} bind def

end
save
-4.0 217.0 translate
1 -1 scale

/cp {closepath} bind def
/ef {eofill} bind def
/gr {grestore} bind def
/gs {gsave} bind def
/sa {save} bind def
/rs {restore} bind def
/l {lineto} bind def
/m {moveto} bind def
/rm {rmoveto} bind def
/n {newpath} bind def
/s {stroke} bind def
/sh {show} bind def
/slc {setlinecap} bind def
/slj {setlinejoin} bind def
/slw {setlinewidth} bind def
/srgb {setrgbcolor} bind def
/rot {rotate} bind def
/sc {scale} bind def
/sd {setdash} bind def
/ff {findfont} bind def
/sf {setfont} bind def
/scf {scalefont} bind def
/sw {stringwidth} bind def
/tr {translate} bind def
/tnt {dup dup currentrgbcolor
  4 -2 roll dup 1 exch sub 3 -1 roll mul add
  4 -2 roll dup 1 exch sub 3 -1 roll mul add
  4 -2 roll dup 1 exch sub 3 -1 roll mul add srgb}
  bind def
/shd {dup dup currentrgbcolor 4 -2 roll mul 4 -2 roll mul
  4 -2 roll mul srgb} bind def
/$F2psBegin {$F2psDict begin /$F2psEnteredState save def} def
/$F2psEnd {$F2psEnteredState restore end} def
%%EndProlog

$F2psBegin
10 setmiterlimit
n -1000 4601 m -1000 -1000 l 6851 -1000 l 6851 4601 l cp clip
 0.06000 0.06000 sc
% Polyline
n 180 375 m 75 375 75 3495 105 arcto 4 {pop} repeat
  75 3600 5745 3600 105 arcto 4 {pop} repeat
  5850 3600 5850 480 105 arcto 4 {pop} repeat
  5850 375 180 375 105 arcto 4 {pop} repeat
 cp gs col7 1.00 shd ef gr 
% Polyline
7.500 slw
gs  clippath
405 1380 m 375 1500 l 345 1380 l 345 1515 l 405 1515 l cp
clip
n 2100 825 m 2100 1200 l 375 1200 l 375 1500 l gs col0 s gr gr

% arrowhead
n 405 1380 m 375 1500 l 345 1380 l 375 1380 l 405 1380 l  cp gs 0.00 setgray ef gr  col0 s
% Polyline
gs  clippath
2055 2430 m 2025 2550 l 1995 2430 l 1995 2565 l 2055 2565 l cp
clip
n 2850 825 m 2850 1800 l 2025 1800 l 2025 2550 l gs col0 s gr gr

% arrowhead
n 2055 2430 m 2025 2550 l 1995 2430 l 2025 2430 l 2055 2430 l  cp gs 0.00 setgray ef gr  col0 s
% Polyline
gs  clippath
3855 2505 m 3825 2625 l 3795 2505 l 3795 2640 l 3855 2640 l cp
clip
n 3525 825 m 3525 1800 l 3825 1800 l 3825 2625 l gs col0 s gr gr

% arrowhead
n 3855 2505 m 3825 2625 l 3795 2505 l 3825 2505 l 3855 2505 l  cp gs 0.00 setgray ef gr  col0 s
% Polyline
gs  clippath
4530 1380 m 4500 1500 l 4470 1380 l 4470 1515 l 4530 1515 l cp
clip
n 4200 825 m 4200 1200 l 4500 1200 l 4500 1500 l gs col0 s gr gr

% arrowhead
n 4530 1380 m 4500 1500 l 4470 1380 l 4500 1380 l 4530 1380 l  cp gs 0.00 setgray ef gr  col0 s
% Polyline
n 1125 2175 m 1125 2400 l gs col0 s gr 
% Polyline
n 1500 2175 m 1500 2400 l gs col0 s gr 
% Polyline
n 1125 1950 m 1125 2175 l gs col0 s gr 
% Polyline
n 1500 1950 m 1500 2175 l gs col0 s gr 
% Polyline
n 1125 1725 m 1125 1950 l gs col0 s gr 
% Polyline
n 1500 1725 m 1500 1950 l gs col0 s gr 
% Polyline
n 1125 1500 m 1125 1725 l gs col0 s gr 
% Polyline
n 1500 1500 m 1500 1725 l gs col0 s gr 
% Polyline
n 150 2175 m 1800 2175 l 1800 2400 l 150 2400 l cp gs col0 s gr 
% Polyline
n 150 1500 m 1800 1500 l 1800 1725 l 150 1725 l cp gs col0 s gr 
% Polyline
n 150 1725 m 1800 1725 l 1800 1950 l 150 1950 l cp gs col0 s gr 
% Polyline
n 150 1950 m 1800 1950 l 1800 2175 l 150 2175 l cp gs col0 s gr 
/Times-Roman ff 165.00 scf sf
1551 1650 m
gs 1 -1 sc (...) col0 sh gr
/Times-Roman ff 150.00 scf sf
300 1875 m
gs 1 -1 sc (Brazil              1984) col0 sh gr
/Times-Roman ff 150.00 scf sf
300 1650 m
gs 1 -1 sc (Annie Hall      1977) col0 sh gr
/Times-Roman ff 150.00 scf sf
300 2100 m
gs 1 -1 sc (Casablanca      1942) col0 sh gr
/Times-Roman ff 150.00 scf sf
300 2325 m
gs 1 -1 sc (Easy Rider       1969) col0 sh gr
/Times-Roman ff 150.00 scf sf
1650 2325 m
gs 1 -1 sc (...) col0 sh gr
/Times-Roman ff 150.00 scf sf
1650 2100 m
gs 1 -1 sc (...) col0 sh gr
/Times-Roman ff 150.00 scf sf
1650 1875 m
gs 1 -1 sc (...) col0 sh gr
/Times-Roman ff 150.00 scf sf
1650 1650 m
gs 1 -1 sc (...) col0 sh gr
% Polyline
n 5100 1500 m 5100 1725 l gs col0 s gr 
% Polyline
n 5475 1500 m 5475 1725 l gs col0 s gr 
% Polyline
n 5100 1725 m 5100 1950 l gs col0 s gr 
% Polyline
n 5475 1725 m 5475 1950 l gs col0 s gr 
% Polyline
n 5100 1950 m 5100 2175 l gs col0 s gr 
% Polyline
n 5475 1950 m 5475 2175 l gs col0 s gr 
% Polyline
n 5100 2175 m 5100 2400 l gs col0 s gr 
% Polyline
n 5475 2175 m 5475 2400 l gs col0 s gr 
% Polyline
n 4125 1500 m 5775 1500 l 5775 1725 l 4125 1725 l cp gs col0 s gr 
% Polyline
n 4125 1725 m 5775 1725 l 5775 1950 l 4125 1950 l cp gs col0 s gr 
% Polyline
n 4125 1950 m 5775 1950 l 5775 2175 l 4125 2175 l cp gs col0 s gr 
% Polyline
n 4125 2175 m 5775 2175 l 5775 2400 l 4125 2400 l cp gs col0 s gr 
/Times-Roman ff 150.00 scf sf
4275 1650 m
gs 1 -1 sc (Smoke             1995) col0 sh gr
/Times-Roman ff 150.00 scf sf
4275 1875 m
gs 1 -1 sc (Twin Peaks     1990) col0 sh gr
/Times-Roman ff 150.00 scf sf
4275 2100 m
gs 1 -1 sc (Underground   1995) col0 sh gr
/Times-Roman ff 150.00 scf sf
5625 1650 m
gs 1 -1 sc (...) col0 sh gr
/Times-Roman ff 150.00 scf sf
4275 2325 m
gs 1 -1 sc (Vertigo            1958) col0 sh gr
/Times-Roman ff 150.00 scf sf
5625 1875 m
gs 1 -1 sc (...) col0 sh gr
/Times-Roman ff 150.00 scf sf
5625 2100 m
gs 1 -1 sc (...) col0 sh gr
/Times-Roman ff 150.00 scf sf
5625 2325 m
gs 1 -1 sc (...) col0 sh gr
% Polyline
n 2475 2850 m 2475 3075 l gs col0 s gr 
% Polyline
n 2475 2625 m 2475 2850 l gs col0 s gr 
% Polyline
n 2850 2625 m 2850 2850 l gs col0 s gr 
% Polyline
n 2850 2850 m 2850 3075 l gs col0 s gr 
% Polyline
n 2475 3075 m 2475 3300 l gs col0 s gr 
% Polyline
n 2850 3075 m 2850 3300 l gs col0 s gr 
% Polyline
n 2475 3300 m 2475 3525 l gs col0 s gr 
% Polyline
n 2850 3300 m 2850 3525 l gs col0 s gr 
% Polyline
n 1500 2625 m 3150 2625 l 3150 2850 l 1500 2850 l cp gs col0 s gr 
% Polyline
n 1500 2850 m 3150 2850 l 3150 3075 l 1500 3075 l cp gs col0 s gr 
% Polyline
n 1500 3075 m 3150 3075 l 3150 3300 l 1500 3300 l cp gs col0 s gr 
% Polyline
n 1500 3300 m 3150 3300 l 3150 3525 l 1500 3525 l cp gs col0 s gr 
/Times-Roman ff 150.00 scf sf
2400 2775 m
gs 1 -1 sc ( ) col0 sh gr
/Times-Roman ff 150.00 scf sf
3000 2775 m
gs 1 -1 sc (...) col0 sh gr
/Times-Roman ff 150.00 scf sf
3000 3000 m
gs 1 -1 sc (...) col0 sh gr
/Times-Roman ff 150.00 scf sf
3000 3225 m
gs 1 -1 sc (...) col0 sh gr
/Times-Roman ff 150.00 scf sf
2325 3525 m
gs 1 -1 sc ( ) col0 sh gr
/Times-Roman ff 150.00 scf sf
1650 2775 m
gs 1 -1 sc (Greystoke        1984) col0 sh gr
/Times-Roman ff 150.00 scf sf
1650 3000 m
gs 1 -1 sc (Jurassic Park   1992) col0 sh gr
/Times-Roman ff 150.00 scf sf
1650 3225 m
gs 1 -1 sc (Impitoyable     1992) col0 sh gr
/Times-Roman ff 150.00 scf sf
1650 3450 m
gs 1 -1 sc (Manhattan      1979) col0 sh gr
/Times-Roman ff 150.00 scf sf
3000 3450 m
gs 1 -1 sc (...) col0 sh gr
% Polyline
n 4350 2625 m 4350 2850 l gs col0 s gr 
% Polyline
n 4725 2625 m 4725 2850 l gs col0 s gr 
% Polyline
n 4350 2850 m 4350 3075 l gs col0 s gr 
% Polyline
n 4725 2850 m 4725 3075 l gs col0 s gr 
% Polyline
n 4350 3075 m 4350 3300 l gs col0 s gr 
% Polyline
n 4725 3075 m 4725 3300 l gs col0 s gr 
% Polyline
n 4350 3300 m 4350 3525 l gs col0 s gr 
% Polyline
n 4725 3300 m 4725 3525 l gs col0 s gr 
% Polyline
n 3375 2625 m 5025 2625 l 5025 2850 l 3375 2850 l cp gs col0 s gr 
% Polyline
n 3375 2850 m 5025 2850 l 5025 3075 l 3375 3075 l cp gs col0 s gr 
% Polyline
n 3375 3075 m 5025 3075 l 5025 3300 l 3375 3300 l cp gs col0 s gr 
% Polyline
n 3375 3300 m 5025 3300 l 5025 3525 l 3375 3525 l cp gs col0 s gr 
/Times-Roman ff 150.00 scf sf
3450 3225 m
gs 1 -1 sc (Reservoir Dogs  1992) col0 sh gr
/Times-Roman ff 150.00 scf sf
4875 2775 m
gs 1 -1 sc (...) col0 sh gr
/Times-Roman ff 150.00 scf sf
4875 3000 m
gs 1 -1 sc (...) col0 sh gr
/Times-Roman ff 150.00 scf sf
4875 3225 m
gs 1 -1 sc (...) col0 sh gr
/Times-Roman ff 150.00 scf sf
4875 3450 m
gs 1 -1 sc (...) col0 sh gr
/Times-Roman ff 150.00 scf sf
3450 2775 m
gs 1 -1 sc (Metropolis         1926) col0 sh gr
/Times-Roman ff 150.00 scf sf
3450 3000 m
gs 1 -1 sc (Psychose            1960) col0 sh gr
/Times-Roman ff 150.00 scf sf
3450 3450 m
gs 1 -1 sc (Shining             1980) col0 sh gr
% Polyline
n 1650 525 m 4500 525 l 4500 750 l 1650 750 l cp gs col0 s gr 
% Polyline
n 2475 525 m 2475 975 l gs col0 s gr 
% Polyline
n 3225 525 m 3225 975 l gs col0 s gr 
% Polyline
n 1650 750 m 4500 750 l 4500 975 l 1650 975 l cp gs col0 s gr 
% Polyline
n 3975 525 m 3975 975 l gs col0 s gr 
/Times-Roman ff 150.00 scf sf
1725 675 m
gs 1 -1 sc (Annie Hall) col0 sh gr
/Times-Roman ff 150.00 scf sf
2550 675 m
gs 1 -1 sc (Greystoke) col0 sh gr
/Times-Roman ff 150.00 scf sf
3300 675 m
gs 1 -1 sc (Metropolis) col0 sh gr
/Times-Roman ff 150.00 scf sf
4050 675 m
gs 1 -1 sc (Smoke) col0 sh gr
$F2psEnd
rs
