#FIG 3.2
Portrait
Center
Inches
Letter  
100.00
Single
-2
1200 2
1 3 0 1 -1 -1 0 0 -1 0.000 1 0.0000 3345 1961 66 66 3345 1961 3411 2028
1 3 0 1 -1 -1 0 0 -1 0.000 1 0.0000 4107 1961 66 66 4107 1961 4173 2028
1 3 0 1 -1 -1 0 0 -1 0.000 1 0.0000 4916 1961 66 66 4916 1961 4982 2028
1 3 0 1 -1 -1 0 0 -1 0.000 1 0.0000 5820 1961 66 66 5820 1961 5886 2028
1 3 0 1 -1 -1 0 0 -1 0.000 1 0.0000 4516 1419 84 84 4516 1419 4568 1485
2 2 0 2 -1 -1 0 0 -1 0.000 0 0 7 0 0 5
	 2604 2726 2604 633 511 633 511 2726 2604 2726
2 2 1 1 -1 -1 0 0 -1 1.000 0 0 7 0 0 5
	 2081 2678 558 2678 558 1537 2081 1537 2081 2678
2 2 1 1 -1 -1 0 0 -1 1.000 0 0 7 0 0 5
	 2128 1869 1320 1869 1320 776 2128 776 2128 1869
2 2 1 1 -1 -1 0 0 -1 1.000 0 0 7 0 0 5
	 1224 1490 606 1490 606 681 1224 681 1224 1490
2 2 0 1 0 7 1 0 10 0.000 0 0 7 0 0 5
	 2128 1869 2128 1680 1747 1680 1747 1869 2128 1869
2 1 0 1 -1 -1 0 0 -1 0.000 0 0 -1 0 0 2
	 4440 1430 3382 1912
2 1 0 1 -1 -1 0 0 -1 0.000 0 0 -1 0 0 2
	 4575 1480 4905 1890
2 1 0 1 -1 -1 0 0 -1 0.000 0 0 -1 0 0 2
	 4475 1490 4118 1905
2 1 0 1 -1 -1 0 0 -1 0.000 0 0 -1 0 0 2
	 4605 1415 5827 1897
2 2 0 1 0 7 99 0 10 0.000 0 0 7 0 0 5
	 2367 1441 2367 1251 1747 1251 1747 1441 2367 1441
2 2 0 1 0 7 100 0 10 0.000 0 0 7 0 0 5
	 892 2678 892 2536 606 2536 606 2678 892 2678
2 2 0 1 0 7 100 0 10 0.000 0 0 7 0 0 5
	 1463 2488 1463 2297 1082 2297 1082 2488 1463 2488
2 2 0 1 0 7 100 0 10 0.000 0 0 7 0 0 5
	 844 1680 844 1537 558 1537 558 1680 844 1680
2 2 0 1 0 7 100 0 10 0.000 0 0 7 0 0 5
	 939 1156 939 1014 653 1014 653 1156 939 1156
2 2 0 1 0 7 100 0 10 0.000 0 0 7 0 0 5
	 1129 1490 1129 1014 987 1014 987 1490 1129 1490
2 2 0 1 0 7 100 0 10 0.000 0 0 7 0 0 5
	 796 871 796 681 606 681 606 871 796 871
2 2 0 1 0 7 100 0 10 0.000 0 0 7 0 0 5
	 1224 871 1224 728 844 728 844 871 1224 871
2 2 0 1 0 7 100 0 10 0.000 0 0 7 0 0 5
	 1557 1014 1557 776 1320 776 1320 1014 1557 1014
2 2 0 1 0 7 100 0 10 0.000 0 0 7 0 0 5
	 1891 1585 1891 823 1652 823 1652 1585 1891 1585
2 2 0 1 0 7 100 0 10 0.000 0 0 7 0 0 5
	 2462 1680 2462 1394 2272 1394 2272 1680 2462 1680
2 2 0 1 0 7 100 0 10 0.000 0 0 7 0 0 5
	 2272 918 2272 681 1938 681 1938 918 2272 918
2 2 0 1 0 7 100 0 10 0.000 0 0 7 0 0 5
	 2556 1109 2556 681 2319 681 2319 1109 2556 1109
2 2 0 1 0 7 100 0 10 0.000 0 0 7 0 0 5
	 2081 2108 2081 1965 1700 1965 1700 2108 2081 2108
2 2 1 1 -1 -1 0 0 -1 1.000 0 0 7 0 0 5
	 1746 1680 2555 1680 2555 681 1746 681 1746 1680
4 0 -1 0 0 1 8 0.0000 4 90 60 653 1631 3\001
4 0 -1 0 0 1 10 0.0000 4 105 75 1955 2617 b\001
4 0 -1 0 0 1 10 0.0000 4 105 90 2700 2700 R\001
4 0 -1 0 0 1 10 0.0000 4 105 75 2475 1275 d\001
4 0 -1 0 0 1 10 0.0000 4 75 60 1425 1800 c\001
4 0 -1 0 0 1 10 0.0000 4 75 75 675 1425 a\001
4 0 0 1 0 0 8 0.0000 4 90 60 653 2631 4\001
4 0 0 1 0 0 8 0.0000 4 90 60 1129 2440 7\001
4 0 0 1 0 0 8 0.0000 4 90 120 1795 2059 10\001
4 0 0 1 0 0 8 0.0000 4 90 60 1796 1822 9\001
4 0 0 1 0 0 8 0.0000 4 90 120 1938 1394 12\001
4 0 0 1 0 0 8 0.0000 4 90 120 1986 871 11\001
4 0 0 1 0 0 8 0.0000 4 90 120 2414 871 15\001
4 0 0 1 0 0 8 0.0000 4 90 120 2319 1585 13\001
4 0 0 1 0 0 8 0.0000 4 90 60 1796 1109 8\001
4 0 0 1 0 0 8 0.0000 4 90 120 1368 918 14\001
4 0 0 1 0 0 8 0.0000 4 90 60 1034 1299 6\001
4 0 0 1 0 0 8 0.0000 4 90 60 748 1108 2\001
4 0 0 1 0 0 8 0.0000 4 90 60 653 823 1\001
4 0 0 1 0 0 8 0.0000 4 90 60 938 823 5\001
4 0 -1 0 0 1 10 0.0000 4 75 75 3108 2009 a\001
4 0 -1 0 0 1 10 0.0000 4 105 90 4440 1200 R\001
4 0 -1 0 0 1 10 0.0000 4 105 75 3868 2009 b\001
4 0 -1 0 0 1 10 0.0000 4 75 60 4677 2009 c\001
4 0 -1 0 0 1 10 0.0000 4 105 75 5582 2009 d\001
4 0 0 1 0 0 8 0.0000 4 120 420 3107 2245 [1,2,5,6]\001
4 0 0 1 0 0 8 0.0000 4 120 480 3916 2245 [3,4,7,10]\001
4 0 0 1 0 0 8 0.0000 4 120 390 4772 2245 [8,9,14]\001
4 0 0 1 0 0 8 0.0000 4 120 660 5475 2250 [11,12,13,15]\001
