%!PS-Adobe-2.0 EPSF-2.0
%%Title: pagelibres1.eps
%%Creator: fig2dev Version 3.2.3 Patchlevel 
%%CreationDate: Fri May  4 15:35:21 2001
%%For: rigaux@cartier (Philippe Rigaux)
%%BoundingBox: 0 0 201 79
%%Magnification: 1.0000
%%EndComments
/$F2psDict 200 dict def
$F2psDict begin
$F2psDict /mtrx matrix put
/col-1 {0 setgray} bind def
/col0 {0.000 0.000 0.000 srgb} bind def
/col1 {0.000 0.000 1.000 srgb} bind def
/col2 {0.000 1.000 0.000 srgb} bind def
/col3 {0.000 1.000 1.000 srgb} bind def
/col4 {1.000 0.000 0.000 srgb} bind def
/col5 {1.000 0.000 1.000 srgb} bind def
/col6 {1.000 1.000 0.000 srgb} bind def
/col7 {1.000 1.000 1.000 srgb} bind def
/col8 {0.000 0.000 0.560 srgb} bind def
/col9 {0.000 0.000 0.690 srgb} bind def
/col10 {0.000 0.000 0.820 srgb} bind def
/col11 {0.530 0.810 1.000 srgb} bind def
/col12 {0.000 0.560 0.000 srgb} bind def
/col13 {0.000 0.690 0.000 srgb} bind def
/col14 {0.000 0.820 0.000 srgb} bind def
/col15 {0.000 0.560 0.560 srgb} bind def
/col16 {0.000 0.690 0.690 srgb} bind def
/col17 {0.000 0.820 0.820 srgb} bind def
/col18 {0.560 0.000 0.000 srgb} bind def
/col19 {0.690 0.000 0.000 srgb} bind def
/col20 {0.820 0.000 0.000 srgb} bind def
/col21 {0.560 0.000 0.560 srgb} bind def
/col22 {0.690 0.000 0.690 srgb} bind def
/col23 {0.820 0.000 0.820 srgb} bind def
/col24 {0.500 0.190 0.000 srgb} bind def
/col25 {0.630 0.250 0.000 srgb} bind def
/col26 {0.750 0.380 0.000 srgb} bind def
/col27 {1.000 0.500 0.500 srgb} bind def
/col28 {1.000 0.630 0.630 srgb} bind def
/col29 {1.000 0.750 0.750 srgb} bind def
/col30 {1.000 0.880 0.880 srgb} bind def
/col31 {1.000 0.840 0.000 srgb} bind def

end
save
newpath 0 79 moveto 0 0 lineto 201 0 lineto 201 79 lineto closepath clip newpath
-27.0 83.0 translate
1 -1 scale

/cp {closepath} bind def
/ef {eofill} bind def
/gr {grestore} bind def
/gs {gsave} bind def
/sa {save} bind def
/rs {restore} bind def
/l {lineto} bind def
/m {moveto} bind def
/rm {rmoveto} bind def
/n {newpath} bind def
/s {stroke} bind def
/sh {show} bind def
/slc {setlinecap} bind def
/slj {setlinejoin} bind def
/slw {setlinewidth} bind def
/srgb {setrgbcolor} bind def
/rot {rotate} bind def
/sc {scale} bind def
/sd {setdash} bind def
/ff {findfont} bind def
/sf {setfont} bind def
/scf {scalefont} bind def
/sw {stringwidth} bind def
/tr {translate} bind def
/tnt {dup dup currentrgbcolor
  4 -2 roll dup 1 exch sub 3 -1 roll mul add
  4 -2 roll dup 1 exch sub 3 -1 roll mul add
  4 -2 roll dup 1 exch sub 3 -1 roll mul add srgb}
  bind def
/shd {dup dup currentrgbcolor 4 -2 roll mul 4 -2 roll mul
  4 -2 roll mul srgb} bind def
/$F2psBegin {$F2psDict begin /$F2psEnteredState save def} def
/$F2psEnd {$F2psEnteredState restore end} def

$F2psBegin
%%Page: 1 1
10 setmiterlimit
 0.06299 0.06299 sc
% Polyline
7.500 slw
n 1350 270 m 1800 270 l 1800 540 l 1350 540 l
 cp gs col0 s gr 
% Polyline
n 2250 270 m 2700 270 l 2700 540 l 2250 540 l
 cp gs col0 s gr 
% Polyline
n 3150 270 m 3600 270 l 3600 540 l 3150 540 l
 cp gs col0 s gr 
% Polyline
n 450 810 m 900 810 l 900 1080 l 450 1080 l
 cp gs col0 s gr 
% Polyline
n 450 270 m 900 270 l 900 540 l 450 540 l
 cp gs col0 s gr 
% Polyline
n 1350 810 m 1800 810 l 1800 1080 l 1350 1080 l
 cp gs col0 s gr 
% Polyline
n 2250 810 m 2700 810 l 2700 1080 l 2250 1080 l
 cp gs col0 s gr 
% Polyline
n 3150 810 m 3600 810 l 3600 1080 l 3150 1080 l
 cp gs col0 s gr 
% Polyline
gs  clippath
2400 285 m 2460 285 l 2460 134 l 2430 254 l 2400 134 l cp
645 285 m 705 285 l 705 134 l 675 254 l 645 134 l cp
eoclip
n 675 270 m 675 90 l 2430 90 l
 2430 270 l gs col0 s gr gr

% arrowhead
n 645 134 m 675 254 l 705 134 l 645 134 l  cp gs 0.00 setgray ef gr  col0 s
% arrowhead
n 2400 134 m 2430 254 l 2460 134 l 2400 134 l  cp gs 0.00 setgray ef gr  col0 s
% Polyline
gs  clippath
3165 1020 m 3165 960 l 3014 960 l 3134 990 l 3014 1020 l cp
2685 330 m 2685 390 l 2836 390 l 2716 360 l 2836 330 l cp
eoclip
n 2700 360 m 2880 360 l 2880 990 l
 3150 990 l gs col0 s gr gr

% arrowhead
n 2836 330 m 2716 360 l 2836 390 l 2836 330 l  cp gs 0.00 setgray ef gr  col0 s
% arrowhead
n 3014 1020 m 3134 990 l 3014 960 l 3014 1020 l  cp gs 0.00 setgray ef gr  col0 s
% Polyline
gs  clippath
2550 1065 m 2490 1065 l 2490 1216 l 2520 1096 l 2550 1216 l cp
3360 1065 m 3300 1065 l 3300 1216 l 3330 1096 l 3360 1216 l cp
eoclip
n 3330 1080 m 3330 1305 l 2520 1305 l
 2520 1080 l gs col0 s gr gr

% arrowhead
n 3360 1216 m 3330 1096 l 3300 1216 l 3360 1216 l  cp gs 0.00 setgray ef gr  col0 s
% arrowhead
n 2550 1216 m 2520 1096 l 2490 1216 l 2550 1216 l  cp gs 0.00 setgray ef gr  col0 s
/Times-Roman ff 150.00 scf sf
630 495 m
gs 1 -1 sc (1) col0 sh gr
/Times-Roman ff 150.00 scf sf
1530 495 m
gs 1 -1 sc (2) col0 sh gr
/Times-Roman ff 150.00 scf sf
2430 495 m
gs 1 -1 sc (3) col0 sh gr
/Times-Roman ff 150.00 scf sf
3375 495 m
gs 1 -1 sc (4) col0 sh gr
/Times-Roman ff 150.00 scf sf
675 1035 m
gs 1 -1 sc (5) col0 sh gr
/Times-Roman ff 150.00 scf sf
3375 1035 m
gs 1 -1 sc (8) col0 sh gr
/Times-Roman ff 150.00 scf sf
1575 1035 m
gs 1 -1 sc (6) col0 sh gr
/Times-Roman ff 150.00 scf sf
2475 1035 m
gs 1 -1 sc (7) col0 sh gr
$F2psEnd
rs
