%!PS-Adobe-2.0 EPSF-2.0
%%Title: pagelibres2.eps
%%Creator: fig2dev Version 3.2.3 Patchlevel 
%%CreationDate: Fri May  4 15:49:45 2001
%%For: rigaux@cartier (Philippe Rigaux)
%%BoundingBox: 0 0 173 88
%%Magnification: 1.0000
%%EndComments
/$F2psDict 200 dict def
$F2psDict begin
$F2psDict /mtrx matrix put
/col-1 {0 setgray} bind def
/col0 {0.000 0.000 0.000 srgb} bind def
/col1 {0.000 0.000 1.000 srgb} bind def
/col2 {0.000 1.000 0.000 srgb} bind def
/col3 {0.000 1.000 1.000 srgb} bind def
/col4 {1.000 0.000 0.000 srgb} bind def
/col5 {1.000 0.000 1.000 srgb} bind def
/col6 {1.000 1.000 0.000 srgb} bind def
/col7 {1.000 1.000 1.000 srgb} bind def
/col8 {0.000 0.000 0.560 srgb} bind def
/col9 {0.000 0.000 0.690 srgb} bind def
/col10 {0.000 0.000 0.820 srgb} bind def
/col11 {0.530 0.810 1.000 srgb} bind def
/col12 {0.000 0.560 0.000 srgb} bind def
/col13 {0.000 0.690 0.000 srgb} bind def
/col14 {0.000 0.820 0.000 srgb} bind def
/col15 {0.000 0.560 0.560 srgb} bind def
/col16 {0.000 0.690 0.690 srgb} bind def
/col17 {0.000 0.820 0.820 srgb} bind def
/col18 {0.560 0.000 0.000 srgb} bind def
/col19 {0.690 0.000 0.000 srgb} bind def
/col20 {0.820 0.000 0.000 srgb} bind def
/col21 {0.560 0.000 0.560 srgb} bind def
/col22 {0.690 0.000 0.690 srgb} bind def
/col23 {0.820 0.000 0.820 srgb} bind def
/col24 {0.500 0.190 0.000 srgb} bind def
/col25 {0.630 0.250 0.000 srgb} bind def
/col26 {0.750 0.380 0.000 srgb} bind def
/col27 {1.000 0.500 0.500 srgb} bind def
/col28 {1.000 0.630 0.630 srgb} bind def
/col29 {1.000 0.750 0.750 srgb} bind def
/col30 {1.000 0.880 0.880 srgb} bind def
/col31 {1.000 0.840 0.000 srgb} bind def

end
save
newpath 0 88 moveto 0 0 lineto 173 0 lineto 173 88 lineto closepath clip newpath
-7.0 95.0 translate
1 -1 scale

/cp {closepath} bind def
/ef {eofill} bind def
/gr {grestore} bind def
/gs {gsave} bind def
/sa {save} bind def
/rs {restore} bind def
/l {lineto} bind def
/m {moveto} bind def
/rm {rmoveto} bind def
/n {newpath} bind def
/s {stroke} bind def
/sh {show} bind def
/slc {setlinecap} bind def
/slj {setlinejoin} bind def
/slw {setlinewidth} bind def
/srgb {setrgbcolor} bind def
/rot {rotate} bind def
/sc {scale} bind def
/sd {setdash} bind def
/ff {findfont} bind def
/sf {setfont} bind def
/scf {scalefont} bind def
/sw {stringwidth} bind def
/tr {translate} bind def
/tnt {dup dup currentrgbcolor
  4 -2 roll dup 1 exch sub 3 -1 roll mul add
  4 -2 roll dup 1 exch sub 3 -1 roll mul add
  4 -2 roll dup 1 exch sub 3 -1 roll mul add srgb}
  bind def
/shd {dup dup currentrgbcolor 4 -2 roll mul 4 -2 roll mul
  4 -2 roll mul srgb} bind def
/$F2psBegin {$F2psDict begin /$F2psEnteredState save def} def
/$F2psEnd {$F2psEnteredState restore end} def

$F2psBegin
%%Page: 1 1
10 setmiterlimit
 0.06299 0.06299 sc
% Polyline
7.500 slw
n 2385 225 m 2835 225 l 2835 495 l 2385 495 l
 cp gs col0 s gr 
/Times-Roman ff 150.00 scf sf
2565 450 m
gs 1 -1 sc (1) col0 sh gr
% Polyline
n 2385 675 m 2835 675 l 2835 945 l 2385 945 l
 cp gs col0 s gr 
/Times-Roman ff 150.00 scf sf
2565 900 m
gs 1 -1 sc (3) col0 sh gr
% Polyline
n 2385 1170 m 2835 1170 l 2835 1440 l 2385 1440 l
 cp gs col0 s gr 
/Times-Roman ff 150.00 scf sf
2610 1395 m
gs 1 -1 sc (7) col0 sh gr
% Polyline
n 135 360 m
 1710 360 l gs col0 s gr 
% Polyline
n 630 135 m
 630 1485 l gs col0 s gr 
% Polyline
n 1170 135 m
 1170 1485 l gs col0 s gr 
% Polyline
gs  clippath
2406 340 m 2392 282 l 2245 317 l 2369 319 l 2259 375 l cp
eoclip
n 1620 495 m
 2385 315 l gs col0 s gr gr

% arrowhead
n 2259 375 m 2369 319 l 2245 317 l 2259 375 l  cp gs 0.00 setgray ef gr  col0 s
% Polyline
gs  clippath
2393 1337 m 2406 1278 l 2258 1245 l 2369 1301 l 2245 1304 l cp
eoclip
n 1575 1125 m
 2385 1305 l gs col0 s gr gr

% arrowhead
n 2245 1304 m 2369 1301 l 2258 1245 l 2245 1304 l  cp gs 0.00 setgray ef gr  col0 s
/Times-Roman ff 150.00 scf sf
180 315 m
gs 1 -1 sc (libre ?) col0 sh gr
/Times-Roman ff 150.00 scf sf
720 315 m
gs 1 -1 sc (espace) col0 sh gr
/Times-Roman ff 150.00 scf sf
1260 315 m
gs 1 -1 sc (adresse) col0 sh gr
/Times-Roman ff 150.00 scf sf
1440 540 m
gs 1 -1 sc (1) col0 sh gr
/Times-Roman ff 150.00 scf sf
1440 765 m
gs 1 -1 sc (2) col0 sh gr
/Times-Roman ff 150.00 scf sf
1440 945 m
gs 1 -1 sc (...) col0 sh gr
/Times-Roman ff 150.00 scf sf
1440 1170 m
gs 1 -1 sc (7) col0 sh gr
/Times-Roman ff 150.00 scf sf
315 720 m
gs 1 -1 sc (N) col0 sh gr
/Times-Roman ff 150.00 scf sf
315 540 m
gs 1 -1 sc (O) col0 sh gr
/Times-Roman ff 150.00 scf sf
315 1170 m
gs 1 -1 sc (O) col0 sh gr
/Times-Roman ff 150.00 scf sf
810 540 m
gs 1 -1 sc (123) col0 sh gr
/Times-Roman ff 150.00 scf sf
720 1170 m
gs 1 -1 sc (1089) col0 sh gr
$F2psEnd
rs
