#FIG 3.2
Landscape
Center
Metric
A4      
100.00
Single
-2
1200 2
6 2385 225 2835 495
2 2 0 1 0 7 50 0 -1 0.000 0 0 -1 0 0 5
	 2385 225 2835 225 2835 495 2385 495 2385 225
4 0 0 50 0 0 10 0.0000 4 105 75 2565 450 1\001
-6
6 2385 675 2835 945
2 2 0 1 0 7 50 0 -1 0.000 0 0 -1 0 0 5
	 2385 675 2835 675 2835 945 2385 945 2385 675
4 0 0 50 0 0 10 0.0000 4 105 75 2565 900 3\001
-6
6 2385 1170 2835 1440
2 2 0 1 0 7 50 0 -1 0.000 0 0 -1 0 0 5
	 2385 1170 2835 1170 2835 1440 2385 1440 2385 1170
4 0 0 50 0 0 10 0.0000 4 105 75 2610 1395 7\001
-6
2 1 0 1 0 7 50 0 -1 0.000 0 0 -1 0 0 2
	 135 360 1710 360
2 1 0 1 0 7 50 0 -1 0.000 0 0 -1 0 0 2
	 630 135 630 1485
2 1 0 1 0 7 50 0 -1 0.000 0 0 -1 0 0 2
	 1170 135 1170 1485
2 1 0 1 0 7 50 0 -1 0.000 0 0 -1 1 0 2
	1 1 1.00 60.00 120.00
	 1620 495 2385 315
2 1 0 1 0 7 50 0 -1 0.000 0 0 -1 1 0 2
	1 1 1.00 60.00 120.00
	 1575 1125 2385 1305
4 0 0 50 0 0 10 0.0000 4 105 390 180 315 libre ?\001
4 0 0 50 0 0 10 0.0000 4 105 375 720 315 espace\001
4 0 0 50 0 0 10 0.0000 4 105 435 1260 315 adresse\001
4 0 0 50 0 0 10 0.0000 4 105 75 1440 540 1\001
4 0 0 50 0 0 10 0.0000 4 105 75 1440 765 2\001
4 0 0 50 0 0 10 0.0000 4 15 135 1440 945 ...\001
4 0 0 50 0 0 10 0.0000 4 105 75 1440 1170 7\001
4 0 0 50 0 0 10 0.0000 4 105 120 315 720 N\001
4 0 0 50 0 0 10 0.0000 4 105 105 315 540 O\001
4 0 0 50 0 0 10 0.0000 4 105 105 315 1170 O\001
4 0 0 50 0 0 10 0.0000 4 105 225 810 540 123\001
4 0 0 50 0 0 10 0.0000 4 105 300 720 1170 1089\001
