#FIG 3.2
Landscape
Center
Metric
A4      
100.00
Single
-2
1200 2
6 3675 300 4500 675
1 1 0 1 -1 -1 0 0 -1 0.000 1 0.0000 4050 450 375 150 4050 450 4425 600
4 0 -1 0 0 0 10 0.0000 4 135 645 3750 525 Projection\001
-6
1 1 0 1 -1 -1 0 0 -1 0.000 1 0.0000 5025 3375 375 150 5025 3375 5400 3525
1 1 0 1 -1 -1 0 0 -1 0.000 1 0.0000 900 3450 375 150 900 3450 1275 3600
1 1 0 1 -1 -1 0 0 -1 0.000 1 0.0000 900 2775 375 150 900 2775 1275 2925
1 1 0 1 -1 -1 0 0 -1 0.000 1 0.0000 3000 2775 375 150 3000 2775 3375 2925
1 1 0 1 -1 -1 0 0 -1 0.000 1 0.0000 4950 2775 375 150 4950 2775 5325 2925
1 1 0 1 -1 -1 0 0 -1 0.000 1 0.0000 3975 1125 375 150 3975 1125 4350 1275
1 1 0 1 -1 -1 0 0 -1 0.000 1 0.0000 1875 2175 375 150 1875 2175 2250 2325
1 1 0 1 -1 -1 0 0 -1 0.000 1 0.0000 1875 1575 375 150 1875 1575 2250 1725
2 1 0 1 -1 -1 0 0 -1 0.000 0 0 -1 0 0 2
	 4050 600 4050 975
2 1 0 1 -1 -1 0 0 -1 0.000 0 0 -1 0 0 2
	 900 3900 900 3600
2 1 0 1 -1 -1 0 0 -1 0.000 0 0 -1 0 0 2
	 900 3300 900 2925
2 1 0 1 -1 -1 0 0 -1 0.000 0 0 -1 0 0 2
	 1125 2700 1500 2250
2 1 0 1 -1 -1 0 0 -1 0.000 0 0 -1 0 0 2
	 2175 2250 2700 2700
2 1 0 1 -1 -1 0 0 -1 0.000 0 0 -1 0 0 2
	 1875 2025 1875 1725
2 1 0 1 -1 -1 0 0 -1 0.000 0 0 -1 0 0 2
	 2250 1500 3600 1125
2 1 0 1 -1 -1 0 0 -1 0.000 0 0 -1 0 0 2
	 4275 1200 4950 2625
2 1 0 1 -1 -1 0 0 -1 0.000 0 0 -1 0 0 2
	 2925 2925 2925 3900
2 1 0 1 -1 -1 0 0 -1 0.000 0 0 -1 0 0 2
	 4950 2925 4950 3225
2 1 0 1 -1 -1 0 0 -1 0.000 0 0 -1 0 0 2
	 5025 3525 5025 3900
2 2 0 1 -1 -1 0 0 -1 0.000 0 0 0 0 0 5
	 1350 4125 1350 3900 525 3900 525 4125 1350 4125
2 2 0 1 -1 -1 0 0 -1 0.000 0 0 0 0 0 5
	 3375 4125 3375 3900 2550 3900 2550 4125 3375 4125
2 2 0 1 -1 -1 0 0 -1 0.000 0 0 0 0 0 5
	 5475 4125 5475 3900 4650 3900 4650 4125 5475 4125
4 0 -1 0 0 0 10 0.0000 4 105 195 825 2850 Tri\001
4 0 -1 0 0 0 10 0.0000 4 105 195 2925 2850 Tri\001
4 0 -1 0 0 0 10 0.0000 4 105 195 4875 2850 Tri\001
4 0 -1 0 0 0 10 0.0000 4 105 420 3750 1200 Fusion\001
4 0 -1 0 0 0 10 0.0000 4 105 420 1650 2250 Fusion\001
4 0 -1 0 0 0 10 0.0000 4 105 195 1800 1650 Tri\001
4 0 -1 0 0 0 10 0.0000 4 150 540 600 3525 S\351lection\001
4 0 -1 0 0 0 10 0.0000 4 150 540 4725 3450 S\351lection\001
4 0 -1 0 0 0 10 0.0000 4 150 615 150 3825 S\351quentiel\001
4 0 -1 0 0 0 10 0.0000 4 150 615 2175 3825 S\351quentiel\001
4 0 -1 0 0 0 10 0.0000 4 150 615 4275 3825 S\351quentiel\001
4 0 -1 0 0 2 10 0.0000 4 120 315 675 4050 Film\001
4 0 -1 0 0 0 10 0.0000 4 105 300 360 3330 1958\001
4 0 -1 0 0 0 10 0.0000 4 105 435 405 2565 idFilm\001
4 0 -1 0 0 0 10 0.0000 4 105 435 3150 2625 idFilm\001
4 0 -1 0 0 2 10 0.0000 4 150 270 2850 4050 R\364le\001
4 0 -1 0 0 0 10 0.0000 4 105 555 1305 1395 idActeur\001
4 0 0 50 0 0 10 0.0000 4 135 375 1035 2340 [film]\001
4 0 0 50 0 0 10 0.0000 4 150 315 2430 2340 [r\364le]\001
4 0 0 50 0 0 10 0.0000 4 150 615 1890 1935 [film,r\364le]\001
4 0 -1 0 0 2 10 0.0000 4 120 465 4800 4050 Artiste\001
4 0 -1 0 0 0 10 0.0000 4 105 885 4050 3195 James Stewart\001
4 0 -1 0 0 0 10 0.0000 4 105 585 5040 2565 idArtiste\001
