%!PS-Adobe-2.0 EPSF-2.0
%%Title: phasetri.eps
%%Creator: fig2dev Version 3.2.3 Patchlevel 
%%CreationDate: Thu May  9 16:50:35 2002
%%For: rigaux@cartier (Philippe Rigaux)
%%BoundingBox: 0 0 343 89
%%Magnification: 1.0000
%%EndComments
/$F2psDict 200 dict def
$F2psDict begin
$F2psDict /mtrx matrix put
/col-1 {0 setgray} bind def
/col0 {0.000 0.000 0.000 srgb} bind def
/col1 {0.000 0.000 1.000 srgb} bind def
/col2 {0.000 1.000 0.000 srgb} bind def
/col3 {0.000 1.000 1.000 srgb} bind def
/col4 {1.000 0.000 0.000 srgb} bind def
/col5 {1.000 0.000 1.000 srgb} bind def
/col6 {1.000 1.000 0.000 srgb} bind def
/col7 {1.000 1.000 1.000 srgb} bind def
/col8 {0.000 0.000 0.560 srgb} bind def
/col9 {0.000 0.000 0.690 srgb} bind def
/col10 {0.000 0.000 0.820 srgb} bind def
/col11 {0.530 0.810 1.000 srgb} bind def
/col12 {0.000 0.560 0.000 srgb} bind def
/col13 {0.000 0.690 0.000 srgb} bind def
/col14 {0.000 0.820 0.000 srgb} bind def
/col15 {0.000 0.560 0.560 srgb} bind def
/col16 {0.000 0.690 0.690 srgb} bind def
/col17 {0.000 0.820 0.820 srgb} bind def
/col18 {0.560 0.000 0.000 srgb} bind def
/col19 {0.690 0.000 0.000 srgb} bind def
/col20 {0.820 0.000 0.000 srgb} bind def
/col21 {0.560 0.000 0.560 srgb} bind def
/col22 {0.690 0.000 0.690 srgb} bind def
/col23 {0.820 0.000 0.820 srgb} bind def
/col24 {0.500 0.190 0.000 srgb} bind def
/col25 {0.630 0.250 0.000 srgb} bind def
/col26 {0.750 0.380 0.000 srgb} bind def
/col27 {1.000 0.500 0.500 srgb} bind def
/col28 {1.000 0.630 0.630 srgb} bind def
/col29 {1.000 0.750 0.750 srgb} bind def
/col30 {1.000 0.880 0.880 srgb} bind def
/col31 {1.000 0.840 0.000 srgb} bind def

end
save
newpath 0 89 moveto 0 0 lineto 343 0 lineto 343 89 lineto closepath clip newpath
-8.0 93.0 translate
1 -1 scale

/cp {closepath} bind def
/ef {eofill} bind def
/gr {grestore} bind def
/gs {gsave} bind def
/sa {save} bind def
/rs {restore} bind def
/l {lineto} bind def
/m {moveto} bind def
/rm {rmoveto} bind def
/n {newpath} bind def
/s {stroke} bind def
/sh {show} bind def
/slc {setlinecap} bind def
/slj {setlinejoin} bind def
/slw {setlinewidth} bind def
/srgb {setrgbcolor} bind def
/rot {rotate} bind def
/sc {scale} bind def
/sd {setdash} bind def
/ff {findfont} bind def
/sf {setfont} bind def
/scf {scalefont} bind def
/sw {stringwidth} bind def
/tr {translate} bind def
/tnt {dup dup currentrgbcolor
  4 -2 roll dup 1 exch sub 3 -1 roll mul add
  4 -2 roll dup 1 exch sub 3 -1 roll mul add
  4 -2 roll dup 1 exch sub 3 -1 roll mul add srgb}
  bind def
/shd {dup dup currentrgbcolor 4 -2 roll mul 4 -2 roll mul
  4 -2 roll mul srgb} bind def
/reencdict 12 dict def /ReEncode { reencdict begin
/newcodesandnames exch def /newfontname exch def /basefontname exch def
/basefontdict basefontname findfont def /newfont basefontdict maxlength dict def
basefontdict { exch dup /FID ne { dup /Encoding eq
{ exch dup length array copy newfont 3 1 roll put }
{ exch newfont 3 1 roll put } ifelse } { pop pop } ifelse } forall
newfont /FontName newfontname put newcodesandnames aload pop
128 1 255 { newfont /Encoding get exch /.notdef put } for
newcodesandnames length 2 idiv { newfont /Encoding get 3 1 roll put } repeat
newfontname newfont definefont pop end } def
/isovec [
8#055 /minus 8#200 /grave 8#201 /acute 8#202 /circumflex 8#203 /tilde
8#204 /macron 8#205 /breve 8#206 /dotaccent 8#207 /dieresis
8#210 /ring 8#211 /cedilla 8#212 /hungarumlaut 8#213 /ogonek 8#214 /caron
8#220 /dotlessi 8#230 /oe 8#231 /OE
8#240 /space 8#241 /exclamdown 8#242 /cent 8#243 /sterling
8#244 /currency 8#245 /yen 8#246 /brokenbar 8#247 /section 8#250 /dieresis
8#251 /copyright 8#252 /ordfeminine 8#253 /guillemotleft 8#254 /logicalnot
8#255 /hypen 8#256 /registered 8#257 /macron 8#260 /degree 8#261 /plusminus
8#262 /twosuperior 8#263 /threesuperior 8#264 /acute 8#265 /mu 8#266 /paragraph
8#267 /periodcentered 8#270 /cedilla 8#271 /onesuperior 8#272 /ordmasculine
8#273 /guillemotright 8#274 /onequarter 8#275 /onehalf
8#276 /threequarters 8#277 /questiondown 8#300 /Agrave 8#301 /Aacute
8#302 /Acircumflex 8#303 /Atilde 8#304 /Adieresis 8#305 /Aring
8#306 /AE 8#307 /Ccedilla 8#310 /Egrave 8#311 /Eacute
8#312 /Ecircumflex 8#313 /Edieresis 8#314 /Igrave 8#315 /Iacute
8#316 /Icircumflex 8#317 /Idieresis 8#320 /Eth 8#321 /Ntilde 8#322 /Ograve
8#323 /Oacute 8#324 /Ocircumflex 8#325 /Otilde 8#326 /Odieresis 8#327 /multiply
8#330 /Oslash 8#331 /Ugrave 8#332 /Uacute 8#333 /Ucircumflex
8#334 /Udieresis 8#335 /Yacute 8#336 /Thorn 8#337 /germandbls 8#340 /agrave
8#341 /aacute 8#342 /acircumflex 8#343 /atilde 8#344 /adieresis 8#345 /aring
8#346 /ae 8#347 /ccedilla 8#350 /egrave 8#351 /eacute
8#352 /ecircumflex 8#353 /edieresis 8#354 /igrave 8#355 /iacute
8#356 /icircumflex 8#357 /idieresis 8#360 /eth 8#361 /ntilde 8#362 /ograve
8#363 /oacute 8#364 /ocircumflex 8#365 /otilde 8#366 /odieresis 8#367 /divide
8#370 /oslash 8#371 /ugrave 8#372 /uacute 8#373 /ucircumflex
8#374 /udieresis 8#375 /yacute 8#376 /thorn 8#377 /ydieresis] def
/Times-Italic /Times-Italic-iso isovec ReEncode
/Times-Roman /Times-Roman-iso isovec ReEncode
 /DrawEllipse {
	/endangle exch def
	/startangle exch def
	/yrad exch def
	/xrad exch def
	/y exch def
	/x exch def
	/savematrix mtrx currentmatrix def
	x y tr xrad yrad sc 0 0 1 startangle endangle arc
	closepath
	savematrix setmatrix
	} def

/$F2psBegin {$F2psDict begin /$F2psEnteredState save def} def
/$F2psEnd {$F2psEnteredState restore end} def

$F2psBegin
%%Page: 1 1
10 setmiterlimit
 0.06000 0.06000 sc
/Times-Roman-iso ff 150.00 scf sf
2025 1500 m
gs 1 -1 sc (Fragments tri\351s) col0 sh gr
/Times-Roman-iso ff 150.00 scf sf
2250 225 m
gs 1 -1 sc (M pages) col0 sh gr
/Times-Roman-iso ff 150.00 scf sf
3375 225 m
gs 1 -1 sc (M\351moire principale) col0 sh gr
/Times-Roman-iso ff 150.00 scf sf
1350 1125 m
gs 1 -1 sc (Disque) col0 sh gr
7.500 slw
% Ellipse
n 2512 338 787 262 0 360 DrawEllipse gs col0 s gr

% Polyline
n 150 1125 m 1125 1125 l 1125 1275 l 150 1275 l
 cp gs col0 s gr 
/Times-Roman-iso ff 150.00 scf sf
150 1500 m
gs 1 -1 sc (Fichier \340 trier) col0 sh gr
/Times-Roman-iso ff 150.00 scf sf
525 750 m
gs 1 -1 sc (Lecture) col0 sh gr
/Times-Roman-iso ff 150.00 scf sf
2400 825 m
gs 1 -1 sc (Ecriture) col0 sh gr
% Polyline
n 2100 300 m
 2100 450 l gs col-1 s gr 
% Polyline
n 2250 300 m
 2250 450 l gs col-1 s gr 
% Polyline
n 2400 300 m
 2400 450 l gs col-1 s gr 
% Polyline
n 2550 300 m
 2550 450 l gs col-1 s gr 
% Polyline
n 2700 300 m
 2700 450 l gs col-1 s gr 
% Polyline
n 1950 300 m 3075 300 l 3075 450 l 1950 450 l
 cp gs col-1 s gr 
/Times-Italic-iso ff 150.00 scf sf
2850 375 m
gs 1 -1 sc (...) col-1 sh gr
% Polyline
n 3301 1126 m
 3301 1276 l gs col-1 s gr 
% Polyline
n 3451 1126 m
 3451 1276 l gs col-1 s gr 
% Polyline
n 3601 1126 m
 3601 1276 l gs col-1 s gr 
% Polyline
n 3751 1126 m
 3751 1276 l gs col-1 s gr 
% Polyline
n 3901 1126 m
 3901 1276 l gs col-1 s gr 
% Polyline
n 3151 1126 m 4276 1126 l 4276 1276 l 3151 1276 l
 cp gs col-1 s gr 
/Times-Italic-iso ff 150.00 scf sf
4051 1201 m
gs 1 -1 sc (...) col-1 sh gr
% Polyline
n 4501 1126 m
 4501 1276 l gs col-1 s gr 
% Polyline
n 4651 1126 m
 4651 1276 l gs col-1 s gr 
% Polyline
n 4801 1126 m
 4801 1276 l gs col-1 s gr 
% Polyline
n 4951 1126 m
 4951 1276 l gs col-1 s gr 
% Polyline
n 5101 1126 m
 5101 1276 l gs col-1 s gr 
% Polyline
n 4351 1126 m 5476 1126 l 5476 1276 l 4351 1276 l
 cp gs col-1 s gr 
/Times-Italic-iso ff 150.00 scf sf
5251 1201 m
gs 1 -1 sc (...) col-1 sh gr
% Polyline
 [60] 0 sd
gs  clippath
1991 1120 m 2041 1154 l 2125 1028 l 2034 1112 l 2075 995 l cp
eoclip
n 2475 450 m
 2025 1125 l gs col-1 s gr gr
 [] 0 sd
% arrowhead
n 2075 995 m 2034 1112 l 2125 1028 l 2075 995 l  cp gs 0.00 setgray ef gr  col-1 s
% Polyline
 [60] 0 sd
gs  clippath
3520 1158 m 3554 1108 l 3430 1023 l 3512 1116 l 3396 1072 l cp
eoclip
n 2550 450 m
 3525 1125 l gs col-1 s gr gr
 [] 0 sd
% arrowhead
n 3396 1072 m 3512 1116 l 3430 1023 l 3396 1072 l  cp gs 0.00 setgray ef gr  col-1 s
% Polyline
 [60] 0 sd
gs  clippath
4730 1158 m 4748 1101 l 4604 1054 l 4710 1120 l 4586 1111 l cp
eoclip
n 2625 450 m
 4725 1125 l gs col-1 s gr gr
 [] 0 sd
% arrowhead
n 4586 1111 m 4710 1120 l 4604 1054 l 4586 1111 l  cp gs 0.00 setgray ef gr  col-1 s
% Polyline
 [60] 0 sd
n 2700 450 m
 5025 825 l gs col-1 s gr  [] 0 sd
% Polyline
 [15 45] 45 sd
n 5025 825 m
 5475 900 l gs col-1 s gr  [] 0 sd
% Polyline
n 2101 1126 m
 2101 1276 l gs col-1 s gr 
% Polyline
n 2251 1126 m
 2251 1276 l gs col-1 s gr 
% Polyline
n 2401 1126 m
 2401 1276 l gs col-1 s gr 
% Polyline
n 2551 1126 m
 2551 1276 l gs col-1 s gr 
% Polyline
n 2701 1126 m
 2701 1276 l gs col-1 s gr 
% Polyline
n 1951 1126 m 3076 1126 l 3076 1276 l 1951 1276 l
 cp gs col-1 s gr 
% Polyline
 [60] 0 sd
gs  clippath
1754 391 m 1721 341 l 1594 424 l 1711 384 l 1627 475 l cp
eoclip
n 611 1109 m
 1725 375 l gs col-1 s gr gr
 [] 0 sd
% arrowhead
n 1627 475 m 1711 384 l 1594 424 l 1627 475 l  cp gs 0.00 setgray ef gr  col-1 s
/Times-Italic-iso ff 150.00 scf sf
5700 1275 m
gs 1 -1 sc (...) col-1 sh gr
/Times-Italic-iso ff 150.00 scf sf
2851 1201 m
gs 1 -1 sc (...) col-1 sh gr
$F2psEnd
rs
