#FIG 3.2
Portrait
Center
Inches
Letter  
100.00
Single
-2
1200 2
6 3225 225 4800 1725
6 4050 225 4800 1650
2 2 0 1 -1 7 0 0 -1 0.000 0 0 0 0 0 5
	 4051 527 4727 527 4727 826 4051 826 4051 527
2 2 0 1 -1 7 0 0 -1 0.000 0 0 7 0 0 5
	 4052 227 4351 227 4351 1576 4052 1576 4052 227
-6
6 3226 226 3976 1651
2 2 0 1 -1 7 0 0 -1 0.000 0 0 0 0 0 5
	 3227 527 3902 527 3902 827 3227 827 3227 527
2 2 0 1 -1 7 0 0 -1 0.000 0 0 7 0 0 5
	 3602 227 3902 227 3902 1577 3602 1577 3602 227
-6
-6
6 1125 225 2700 1725
6 1950 225 2700 1650
2 2 0 1 -1 7 0 0 -1 0.000 0 0 0 0 0 5
	 1951 527 2627 527 2627 826 1951 826 1951 527
2 2 0 1 -1 7 0 0 -1 0.000 0 0 7 0 0 5
	 1952 227 2251 227 2251 1576 1952 1576 1952 227
-6
6 1126 226 1876 1651
2 2 0 1 -1 7 0 0 -1 0.000 0 0 0 0 0 5
	 1127 527 1802 527 1802 827 1127 827 1127 527
2 2 0 1 -1 7 0 0 -1 0.000 0 0 7 0 0 5
	 1502 227 1802 227 1802 1577 1502 1577 1502 227
-6
-6
2 2 1 1 -1 7 0 0 -1 4.000 0 0 0 0 0 5
	 3150 150 3975 150 3975 1650 3150 1650 3150 150
2 2 1 1 -1 7 0 0 -1 4.000 0 0 0 0 0 5
	 3975 150 4800 150 4800 1650 3975 1650 3975 150
2 2 1 1 -1 7 0 0 -1 4.000 0 0 0 0 0 5
	 1425 150 2325 150 2325 1650 1425 1650 1425 150
2 2 1 1 -1 7 0 0 -1 4.000 0 0 0 0 0 5
	 1050 450 2700 450 2700 900 1050 900 1050 450
4 0 0 99 0 1 10 0.0000 2 135 1605 1050 1950 A split with minimal area\001
4 0 0 99 0 1 10 0.0000 2 135 1830 3225 1950 A split with minimal overlap\001
