#FIG 3.1
Portrait
Center
Inches
1200 2
2 1 0 1 -1 7 0 0 -1 0.000 0 0 -1 0 0 2
	 975 1275 2175 1050
2 1 0 1 -1 7 0 0 -1 0.000 0 0 -1 0 0 2
	 975 1275 2175 1350
2 1 0 1 -1 7 0 0 -1 0.000 0 0 -1 0 0 2
	 1125 1725 2175 1725
2 1 0 1 -1 7 0 0 -1 0.000 0 0 -1 0 0 2
	 1125 1725 2175 1950
2 1 0 1 -1 7 0 0 -1 0.000 0 0 -1 0 0 2
	 4200 1275 3000 1350
2 1 0 1 -1 7 0 0 -1 0.000 0 0 -1 0 0 2
	 4200 1875 2925 1950
2 1 0 1 -1 7 0 0 -1 0.000 0 0 -1 0 0 2
	 3000 1650 4200 1350
2 1 0 1 -1 7 0 0 -1 0.000 0 0 -1 0 0 2
	 2700 975 4275 975
2 4 0 1 -1 7 0 0 -1 0.000 0 0 7 0 0 5
	 1657 2250 1657 765 225 765 225 2250 1657 2250
2 4 0 1 -1 7 0 0 -1 0.000 0 0 7 0 0 5
	 3525 2250 3525 772 2055 772 2055 2250 3525 2250
2 4 0 1 -1 7 0 0 -1 0.000 0 0 7 0 0 5
	 5550 2250 5550 772 4080 772 4080 2250 5550 2250
4 0 -1 0 0 0 12 0.0000000 4 135 720 525 675 ACTEUR\001
4 0 -1 0 0 0 12 0.0000000 4 135 465 2475 675 ROLE\001
4 0 -1 0 0 0 12 0.0000000 4 135 435 4575 675 FILM\001
4 0 -1 0 0 0 10 0.0000000 4 135 1020 4275 1350 La Reine Margot\001
4 0 -1 0 0 0 10 0.0000000 4 105 960 4275 1875 Nocturne Indien\001
4 0 -1 0 0 0 10 0.0000000 4 135 495 525 1800 Anglade\001
4 0 -1 0 0 0 10 0.0000000 4 135 405 525 1350 Adjani\001
4 0 -1 0 0 0 10 0.0000000 4 135 615 2250 2025 Rossignol\001
4 0 -1 0 0 0 10 0.0000000 4 105 645 2250 1725 Charles IX\001
4 0 -1 0 0 0 10 0.0000000 4 105 345 2250 1050 Adele\001
4 0 -1 0 0 0 10 0.0000000 4 135 645 2250 1425 Marguerite\001
4 0 -1 0 0 0 10 0.0000000 4 105 540 4350 1050 Adele H.\001
