[0] Config.pm:304> INFO - This is Biber 2.13
[0] Config.pm:307> INFO - Logfile is 'main.blg'
[46] biber-darwin:315> INFO - === Mon Sep 30, 2019, 11:06:12
[62] Biber.pm:375> INFO - Reading 'main.bcf'
[162] Biber.pm:905> INFO - Found 35 citekeys in bib section 0
[180] Biber.pm:4196> INFO - Processing section 0
[181] Utils.pm:75> INFO - Globbing data source 'biblio.bib'
[182] Utils.pm:91> INFO - Globbed data source 'biblio.bib' to biblio.bib
[192] Biber.pm:4373> INFO - Looking for bibtex format file 'biblio.bib' for section 0
[194] bibtex.pm:1462> INFO - LaTeX decoding ...
[250] bibtex.pm:1281> INFO - Found BibTeX data source 'biblio.bib'
[331] Utils.pm:300> WARN - month field 'January' in entry '6502' is not an integer - this will probably not sort properly.
[333] Utils.pm:300> WARN - BibTeX subsystem: warning: comma(s) at end of name (removing)
[333] Utils.pm:300> WARN - BibTeX subsystem: author, warning: comma(s) at end of name (removing)
[375] UCollate.pm:68> INFO - Overriding locale 'fr-FR' defaults 'variable = shifted' with 'variable = non-ignorable'
[375] UCollate.pm:68> INFO - Overriding locale 'fr-FR' defaults 'normalization = NFD' with 'normalization = prenormalized'
[375] Biber.pm:4024> INFO - Sorting list 'nty/global//global/global' of type 'entry' with template 'nty' and locale 'fr-FR'
[376] Biber.pm:4030> INFO - No sort tailoring available for locale 'fr-FR'
[405] bbl.pm:648> INFO - Writing 'main.bbl' with encoding 'UTF-8'
[416] bbl.pm:751> INFO - Output to main.bbl
[416] Biber.pm:110> INFO - WARNINGS: 3
